<svg width="32" height="32" viewBox="0 0 32 32" fill="none" xmlns="http://www.w3.org/2000/svg">
<path fill-rule="evenodd" clip-rule="evenodd" d="M1 17C1 18.0264 1.39156 19.0528 2.17469 19.836L13.164 30.8253C14.7303 32.3916 17.2697 32.3916 18.836 30.8253L29.8253 19.836C30.6084 19.0528 31 18.0264 31 17V15H30.4669C30.2947 14.7011 30.0809 14.4196 29.8253 14.164L18.836 3.17469C17.2697 1.60844 14.7303 1.60844 13.164 3.17469L2.17469 14.164C1.91913 14.4196 1.70527 14.7011 1.5331 15H1V17Z" fill="black"/>
<path d="M2.52825 12.5176L13.5176 1.52825C14.8886 0.157251 17.1114 0.157251 18.4824 1.52825L29.4718 12.5176C30.8427 13.8886 30.8427 16.1114 29.4718 17.4824L18.4824 28.4718C17.1114 29.8427 14.8886 29.8427 13.5176 28.4718L2.52825 17.4824C1.15725 16.1114 1.15725 13.8886 2.52825 12.5176Z" fill="#7238AD" stroke="black"/>
<path d="M21.2628 12.4375H18.7741C18.7287 12.1155 18.6359 11.8295 18.4957 11.5795C18.3556 11.3258 18.1757 11.1098 17.956 10.9318C17.7363 10.7538 17.4825 10.6174 17.1946 10.5227C16.9105 10.428 16.6018 10.3807 16.2685 10.3807C15.6662 10.3807 15.1416 10.5303 14.6946 10.8295C14.2476 11.125 13.901 11.5568 13.6548 12.125C13.4086 12.6894 13.2855 13.375 13.2855 14.1818C13.2855 15.0114 13.4086 15.7083 13.6548 16.2727C13.9048 16.8371 14.2533 17.2633 14.7003 17.5511C15.1473 17.839 15.6643 17.983 16.2514 17.983C16.581 17.983 16.8859 17.9394 17.1662 17.8523C17.4503 17.7652 17.7022 17.6383 17.9219 17.4716C18.1416 17.3011 18.3234 17.0947 18.4673 16.8523C18.6151 16.6098 18.7173 16.3333 18.7741 16.0227L21.2628 16.0341C21.1984 16.5682 21.0374 17.0833 20.7798 17.5795C20.526 18.072 20.1832 18.5133 19.7514 18.9034C19.3234 19.2898 18.812 19.5966 18.2173 19.8239C17.6264 20.0473 16.9579 20.1591 16.2116 20.1591C15.1738 20.1591 14.2457 19.9242 13.4276 19.4545C12.6132 18.9848 11.9692 18.3049 11.4957 17.4148C11.026 16.5246 10.7912 15.447 10.7912 14.1818C10.7912 12.9129 11.0298 11.8333 11.5071 10.9432C11.9844 10.053 12.6321 9.375 13.4503 8.90909C14.2685 8.43939 15.1889 8.20455 16.2116 8.20455C16.8859 8.20455 17.5109 8.29924 18.0866 8.48864C18.6662 8.67803 19.1795 8.95455 19.6264 9.31818C20.0734 9.67803 20.437 10.1193 20.7173 10.642C21.0014 11.1648 21.1832 11.7633 21.2628 12.4375Z" fill="white"/>
</svg>
