<svg width="32" height="32" viewBox="0 0 32 32" fill="none" xmlns="http://www.w3.org/2000/svg">
<rect x="2" y="3" width="28" height="28" rx="4" fill="black"/>
<rect x="2.5" y="1.5" width="27" height="27" rx="3.5" fill="#25A797" stroke="black"/>
<path d="M12.1129 21V9.36364H19.9538V11.392H14.5732V14.1648H19.5504V16.1932H14.5732V18.9716H19.9766V21H12.1129Z" fill="black"/>
</svg>
