<svg width="32" height="32" viewBox="0 0 32 32" fill="none" xmlns="http://www.w3.org/2000/svg">
<path fill-rule="evenodd" clip-rule="evenodd" d="M1 17C1 18.0264 1.39156 19.0528 2.17469 19.836L13.164 30.8253C14.7303 32.3916 17.2697 32.3916 18.836 30.8253L29.8253 19.836C30.6084 19.0528 31 18.0264 31 17V15H30.4669C30.2947 14.7011 30.0809 14.4196 29.8253 14.164L18.836 3.17469C17.2697 1.60844 14.7303 1.60844 13.164 3.17469L2.17469 14.164C1.91913 14.4196 1.70527 14.7011 1.5331 15H1V17Z" fill="black"/>
<path d="M2.52825 12.5176L13.5176 1.52825C14.8886 0.157251 17.1114 0.157251 18.4824 1.52825L29.4718 12.5176C30.8427 13.8886 30.8427 16.1114 29.4718 17.4824L18.4824 28.4718C17.1114 29.8427 14.8886 29.8427 13.5176 28.4718L2.52825 17.4824C1.15725 16.1114 1.15725 13.8886 2.52825 12.5176Z" fill="#1CA4F0" stroke="black"/>
<path fill-rule="evenodd" clip-rule="evenodd" d="M13.4437 8.55318C13.8287 8.81439 14.3862 9.0635 14.8236 9.23942C15.1849 9.0853 15.5825 9 16 9C16.4175 9 16.8151 9.0853 17.1764 9.23942C17.6138 9.06349 18.1713 8.81439 18.5563 8.55318C18.9601 8.27924 19.3626 7.63429 19.6396 7.11773C19.7514 6.90918 20.0097 6.99386 19.9997 7.24492C19.974 7.89093 19.8826 8.78124 19.5996 9.49221C19.3829 10.0367 19.0579 10.4834 18.7573 10.816C18.9135 11.1793 19 11.5795 19 12C19 13.3062 18.1652 14.4175 17 14.8293V17H17.4952C18.0475 17 18.4952 17.4477 18.4952 18C18.4952 18.5523 18.0475 19 17.4952 19H17V20H18C18.5523 20 19 20.4477 19 21C19 21.5523 18.5523 22 18 22H17H16C15.4477 22 15 21.5523 15 21V18V14.8293C13.8348 14.4175 13 13.3062 13 12C13 11.5795 13.0865 11.1793 13.2427 10.816C12.9421 10.4834 12.6171 10.0367 12.4004 9.49221C12.1174 8.78124 12.026 7.89093 12.0003 7.24492C11.9903 6.99386 12.2486 6.90918 12.3604 7.11773C12.6373 7.63429 13.0399 8.27924 13.4437 8.55318ZM17.125 12C17.125 12.6213 16.6213 13.125 16 13.125C15.3787 13.125 14.875 12.6213 14.875 12C14.875 11.3787 15.3787 10.875 16 10.875C16.6213 10.875 17.125 11.3787 17.125 12Z" fill="white"/>
</svg>
